\relax 
\global\@todotoctrue
\citation{Briceno:2017max}
\citation{shrestha2012multichannel}
\citation{Durr:2010aw}
\global\@todotoctrue
\citation{Briceno:2017max}
\global\@todotoctrue
\citation{leskovec2012scattering}
\@writefile{toc}{\contentsline {section}{\numberline {1}Introduction}{1}}
\@writefile{lot}{\contentsline {table}{\numberline {1}{\ignorespaces Parameters of the list of lattice gauge-field ensembles.}}{1}}
\newlabel{tab:BMWconfigs}{{1}{1}}
\@writefile{toc}{\contentsline {section}{\numberline {2}L{\"u}scher quantization condition}{1}}
\global\@todotoctrue
\citation{johnson1982angular}
\global\@todotoctrue
\@writefile{lot}{\contentsline {table}{\numberline {2}{\ignorespaces Frames, Groups $\&$ Irreps $\Lambda $ (with angular momentum content)}}{2}}
\newlabel{plan}{{2}{2}}
\@writefile{toc}{\contentsline {section}{\numberline {3}Moving frames}{2}}
\@writefile{toc}{\contentsline {section}{\numberline {4}Angular momentum on the lattice}{2}}
\@writefile{toc}{\contentsline {section}{\numberline {5}Interpolators}{2}}
\global\@todotoctrue
\citation{morningstar2013extended}
\citation{moore2006multiparticle}
\@writefile{lot}{\contentsline {table}{\numberline {3}{\ignorespaces Occurrence of Irreps of group $O_h^D$ (rest frame) in the subduction of half-integer $J$ irrep of $SU(2)$ (also spin-content of irreps)}}{3}}
\newlabel{spincont}{{3}{3}}
\@writefile{toc}{\contentsline {section}{\numberline {6}Projection method}{3}}
\@writefile{lof}{\contentsline {figure}{\numberline {1}{\ignorespaces  Tensor decomposition of the nucleon transformation matrices}}{3}}
\newlabel{Fig:nt}{{1}{3}}
\newlabel{pm}{{6.1}{3}}
\global\@todotoctrue
\citation{morningstar2013extended}
\citation{Blossier:2009kd}
\@writefile{lof}{\contentsline {figure}{\numberline {2}{\ignorespaces  Tensor decomposition of the Delta transformation matrices}}{4}}
\newlabel{Fig:dt}{{2}{4}}
\newlabel{occ}{{6.2}{4}}
\@writefile{toc}{\contentsline {section}{\numberline {7}Spectra}{4}}
\global\@todotoctrue
\global\@todotoctrue
\@writefile{lof}{\contentsline {figure}{\numberline {3}{\ignorespaces  Analysis of the fits($\frac  {\chi }{ndf}$ listed at points). Left panel: Rest frame $\mathaccentV {vec}17E{P}=\frac  {2\pi }{L}(0,0,0)$: group $O_h^D$ - irrep $H_g$ forward moving and $H_u$ backward moving. The ground state show a plateau at $t_{min}/a=5$ and the first excited at $t_{min}/a=4$. Right panel: Moving frame $\mathaccentV {vec}17E{P}=\frac  {2\pi }{L}(0,0,1)$: group $C_{4v}^D$ - irrep $G_1$. For all levels it has been chosen $t_{min}/a=4$. }}{5}}
\newlabel{Fig:stfit}{{3}{5}}
\@writefile{lof}{\contentsline {figure}{\numberline {4}{\ignorespaces  Left panel: Rest frame $\mathaccentV {vec}17E{P}=\frac  {2\pi }{L}(0,0,0)$: group $O_h^D$ - irrep $H_g$ forward moving and $H_u$ backward moving. The ground state has maximum overlap with the single-hadron $\Delta $-like interpolator, while the first excited level shows an expected shift in energy with respect to the first non-interacting nucleon-pion energy. Right panel: Moving frame $\mathaccentV {vec}17E{P}=\frac  {2\pi }{L}(0,0,1)$: group $C_{4v}^D$ - irrep $G_1$. The ground state has dominant overlap to the $N\pi $ two-hadron interpolator while the second energy level overlaps with the $\Delta $ resonance . The other two levels display a shift in energy with respect to their non-interacting counterparts, gaining further distance from the resonance.}}{5}}
\newlabel{Fig:emp}{{4}{5}}
\@writefile{toc}{\contentsline {section}{\numberline {8}Conclusions}{5}}
\bibstyle{JHEP}
\bibdata{biblioproceeding}
\bibcite{Briceno:2017max}{1}
\bibcite{shrestha2012multichannel}{2}
\bibcite{Durr:2010aw}{3}
\bibcite{leskovec2012scattering}{4}
\bibcite{johnson1982angular}{5}
\bibcite{morningstar2013extended}{6}
\bibcite{moore2006multiparticle}{7}
\bibcite{Blossier:2009kd}{8}
\@writefile{toc}{\contentsline {section}{\numberline {9}Acknowledgements}{6}}
